info face="Liberation Mono" size=32 bold=0 italic=0 charset="" unicode=0 stretchH=100 smooth=1 aa=1 padding=1,1,1,1 spacing=-2,-2
common lineHeight=37 base=27 scaleW=512 scaleH=512 pages=1 packed=0
page id=0 file="text.png"
chars count=97
char id=0       x=398  y=55   width=16   height=14   xoffset=0    yoffset=14   xadvance=19   page=0    chnl=0 
char id=10      x=398  y=55   width=16   height=14   xoffset=0    yoffset=14   xadvance=19   page=0    chnl=0 
char id=32      x=0    y=0    width=0    height=0    xoffset=-1   yoffset=26   xadvance=19   page=0    chnl=0 
char id=33      x=496  y=32   width=5    height=23   xoffset=7    yoffset=5    xadvance=19   page=0    chnl=0 
char id=34      x=446  y=55   width=12   height=12   xoffset=4    yoffset=3    xadvance=19   page=0    chnl=0 
char id=35      x=57   y=55   width=20   height=23   xoffset=0    yoffset=5    xadvance=19   page=0    chnl=0 
char id=36      x=131  y=0    width=19   height=28   xoffset=0    yoffset=3    xadvance=19   page=0    chnl=0 
char id=37      x=35   y=55   width=22   height=23   xoffset=-1   yoffset=5    xadvance=19   page=0    chnl=0 
char id=38      x=77   y=55   width=20   height=23   xoffset=0    yoffset=5    xadvance=19   page=0    chnl=0 
char id=39      x=458  y=55   width=5    height=12   xoffset=7    yoffset=3    xadvance=19   page=0    chnl=0 
char id=40      x=13   y=0    width=11   height=32   xoffset=4    yoffset=3    xadvance=19   page=0    chnl=0 
char id=41      x=24   y=0    width=11   height=32   xoffset=4    yoffset=3    xadvance=19   page=0    chnl=0 
char id=42      x=414  y=55   width=14   height=14   xoffset=3    yoffset=3    xadvance=19   page=0    chnl=0 
char id=43      x=362  y=55   width=18   height=17   xoffset=1    yoffset=8    xadvance=19   page=0    chnl=0 
char id=44      x=463  y=55   width=9    height=12   xoffset=3    yoffset=22   xadvance=19   page=0    chnl=0 
char id=45      x=0    y=78   width=11   height=5    xoffset=4    yoffset=16   xadvance=19   page=0    chnl=0 
char id=46      x=472  y=55   width=6    height=7    xoffset=7    yoffset=21   xadvance=19   page=0    chnl=0 
char id=47      x=348  y=0    width=19   height=25   xoffset=0    yoffset=3    xadvance=19   page=0    chnl=0 
char id=48      x=0    y=55   width=17   height=23   xoffset=1    yoffset=5    xadvance=19   page=0    chnl=0 
char id=49      x=342  y=32   width=17   height=23   xoffset=1    yoffset=5    xadvance=19   page=0    chnl=0 
char id=50      x=359  y=32   width=17   height=23   xoffset=1    yoffset=5    xadvance=19   page=0    chnl=0 
char id=51      x=376  y=32   width=18   height=23   xoffset=1    yoffset=5    xadvance=19   page=0    chnl=0 
char id=52      x=394  y=32   width=18   height=23   xoffset=1    yoffset=5    xadvance=19   page=0    chnl=0 
char id=53      x=412  y=32   width=17   height=23   xoffset=1    yoffset=5    xadvance=19   page=0    chnl=0 
char id=54      x=429  y=32   width=17   height=23   xoffset=1    yoffset=5    xadvance=19   page=0    chnl=0 
char id=55      x=446  y=32   width=16   height=23   xoffset=1    yoffset=5    xadvance=19   page=0    chnl=0 
char id=56      x=462  y=32   width=17   height=23   xoffset=1    yoffset=5    xadvance=19   page=0    chnl=0 
char id=57      x=479  y=32   width=17   height=23   xoffset=1    yoffset=5    xadvance=19   page=0    chnl=0 
char id=58      x=501  y=32   width=6    height=19   xoffset=7    yoffset=9    xadvance=19   page=0    chnl=0 
char id=59      x=338  y=0    width=10   height=25   xoffset=4    yoffset=9    xadvance=19   page=0    chnl=0 
char id=60      x=326  y=55   width=18   height=19   xoffset=1    yoffset=7    xadvance=19   page=0    chnl=0 
char id=61      x=428  y=55   width=18   height=13   xoffset=1    yoffset=10   xadvance=19   page=0    chnl=0 
char id=62      x=344  y=55   width=18   height=19   xoffset=1    yoffset=7    xadvance=19   page=0    chnl=0 
char id=63      x=17   y=55   width=18   height=23   xoffset=0    yoffset=5    xadvance=19   page=0    chnl=0 
char id=64      x=93   y=0    width=20   height=30   xoffset=0    yoffset=3    xadvance=19   page=0    chnl=0 
char id=65      x=386  y=0    width=22   height=23   xoffset=-1   yoffset=5    xadvance=19   page=0    chnl=0 
char id=66      x=408  y=0    width=17   height=23   xoffset=2    yoffset=5    xadvance=19   page=0    chnl=0 
char id=67      x=425  y=0    width=18   height=23   xoffset=1    yoffset=5    xadvance=19   page=0    chnl=0 
char id=68      x=443  y=0    width=17   height=23   xoffset=2    yoffset=5    xadvance=19   page=0    chnl=0 
char id=69      x=460  y=0    width=17   height=23   xoffset=2    yoffset=5    xadvance=19   page=0    chnl=0 
char id=70      x=477  y=0    width=16   height=23   xoffset=2    yoffset=5    xadvance=19   page=0    chnl=0 
char id=71      x=493  y=0    width=18   height=23   xoffset=1    yoffset=5    xadvance=19   page=0    chnl=0 
char id=72      x=0    y=32   width=16   height=23   xoffset=2    yoffset=5    xadvance=19   page=0    chnl=0 
char id=73      x=16   y=32   width=15   height=23   xoffset=2    yoffset=5    xadvance=19   page=0    chnl=0 
char id=74      x=31   y=32   width=15   height=23   xoffset=2    yoffset=5    xadvance=19   page=0    chnl=0 
char id=75      x=46   y=32   width=19   height=23   xoffset=2    yoffset=5    xadvance=19   page=0    chnl=0 
char id=76      x=65   y=32   width=16   height=23   xoffset=3    yoffset=5    xadvance=19   page=0    chnl=0 
char id=77      x=81   y=32   width=17   height=23   xoffset=1    yoffset=5    xadvance=19   page=0    chnl=0 
char id=78      x=98   y=32   width=16   height=23   xoffset=2    yoffset=5    xadvance=19   page=0    chnl=0 
char id=79      x=114  y=32   width=18   height=23   xoffset=1    yoffset=5    xadvance=19   page=0    chnl=0 
char id=80      x=132  y=32   width=17   height=23   xoffset=2    yoffset=5    xadvance=19   page=0    chnl=0 
char id=81      x=113  y=0    width=18   height=29   xoffset=1    yoffset=5    xadvance=19   page=0    chnl=0 
char id=82      x=149  y=32   width=18   height=23   xoffset=2    yoffset=5    xadvance=19   page=0    chnl=0 
char id=83      x=167  y=32   width=19   height=23   xoffset=-1   yoffset=5    xadvance=19   page=0    chnl=0 
char id=84      x=186  y=32   width=19   height=23   xoffset=0    yoffset=5    xadvance=19   page=0    chnl=0 
char id=85      x=205  y=32   width=17   height=23   xoffset=1    yoffset=5    xadvance=19   page=0    chnl=0 
char id=86      x=222  y=32   width=22   height=23   xoffset=-1   yoffset=5    xadvance=19   page=0    chnl=0 
char id=87      x=244  y=32   width=22   height=23   xoffset=-1   yoffset=5    xadvance=19   page=0    chnl=0 
char id=88      x=266  y=32   width=21   height=23   xoffset=-1   yoffset=5    xadvance=19   page=0    chnl=0 
char id=89      x=287  y=32   width=21   height=23   xoffset=-1   yoffset=5    xadvance=19   page=0    chnl=0 
char id=90      x=308  y=32   width=19   height=23   xoffset=0    yoffset=5    xadvance=19   page=0    chnl=0 
char id=91      x=35   y=0    width=11   height=32   xoffset=5    yoffset=3    xadvance=19   page=0    chnl=0 
char id=92      x=367  y=0    width=19   height=25   xoffset=0    yoffset=3    xadvance=19   page=0    chnl=0 
char id=93      x=46   y=0    width=11   height=32   xoffset=3    yoffset=3    xadvance=19   page=0    chnl=0 
char id=94      x=380  y=55   width=18   height=16   xoffset=1    yoffset=5    xadvance=19   page=0    chnl=0 
char id=95      x=11   y=78   width=21   height=5    xoffset=-1   yoffset=26   xadvance=19   page=0    chnl=0 
char id=96      x=478  y=55   width=9    height=6    xoffset=5    yoffset=3    xadvance=19   page=0    chnl=0 
char id=97      x=97   y=55   width=18   height=19   xoffset=1    yoffset=9    xadvance=19   page=0    chnl=0 
char id=98      x=221  y=0    width=17   height=25   xoffset=1    yoffset=3    xadvance=19   page=0    chnl=0 
char id=99      x=115  y=55   width=17   height=19   xoffset=1    yoffset=9    xadvance=19   page=0    chnl=0 
char id=100     x=238  y=0    width=17   height=25   xoffset=1    yoffset=3    xadvance=19   page=0    chnl=0 
char id=101     x=132  y=55   width=17   height=19   xoffset=1    yoffset=9    xadvance=19   page=0    chnl=0 
char id=102     x=255  y=0    width=17   height=25   xoffset=1    yoffset=3    xadvance=19   page=0    chnl=0 
char id=103     x=150  y=0    width=17   height=26   xoffset=1    yoffset=9    xadvance=19   page=0    chnl=0 
char id=104     x=272  y=0    width=16   height=25   xoffset=2    yoffset=3    xadvance=19   page=0    chnl=0 
char id=105     x=288  y=0    width=17   height=25   xoffset=1    yoffset=3    xadvance=19   page=0    chnl=0 
char id=106     x=0    y=0    width=13   height=32   xoffset=1    yoffset=3    xadvance=19   page=0    chnl=0 
char id=107     x=305  y=0    width=17   height=25   xoffset=3    yoffset=3    xadvance=19   page=0    chnl=0 
char id=108     x=322  y=0    width=16   height=25   xoffset=3    yoffset=3    xadvance=19   page=0    chnl=0 
char id=109     x=149  y=55   width=19   height=19   xoffset=0    yoffset=9    xadvance=19   page=0    chnl=0 
char id=110     x=168  y=55   width=17   height=19   xoffset=1    yoffset=9    xadvance=19   page=0    chnl=0 
char id=111     x=185  y=55   width=17   height=19   xoffset=1    yoffset=9    xadvance=19   page=0    chnl=0 
char id=112     x=167  y=0    width=17   height=26   xoffset=1    yoffset=9    xadvance=19   page=0    chnl=0 
char id=113     x=184  y=0    width=17   height=26   xoffset=1    yoffset=9    xadvance=19   page=0    chnl=0 
char id=114     x=202  y=55   width=15   height=19   xoffset=3    yoffset=9    xadvance=19   page=0    chnl=0 
char id=115     x=217  y=55   width=16   height=19   xoffset=1    yoffset=9    xadvance=19   page=0    chnl=0 
char id=116     x=327  y=32   width=15   height=23   xoffset=2    yoffset=5    xadvance=19   page=0    chnl=0 
char id=117     x=233  y=55   width=17   height=19   xoffset=2    yoffset=9    xadvance=19   page=0    chnl=0 
char id=118     x=250  y=55   width=20   height=19   xoffset=0    yoffset=9    xadvance=19   page=0    chnl=0 
char id=119     x=270  y=55   width=21   height=19   xoffset=-1   yoffset=9    xadvance=19   page=0    chnl=0 
char id=120     x=291  y=55   width=19   height=19   xoffset=0    yoffset=9    xadvance=19   page=0    chnl=0 
char id=121     x=201  y=0    width=20   height=26   xoffset=0    yoffset=9    xadvance=19   page=0    chnl=0 
char id=122     x=310  y=55   width=16   height=19   xoffset=1    yoffset=9    xadvance=19   page=0    chnl=0 
char id=123     x=57   y=0    width=16   height=32   xoffset=2    yoffset=3    xadvance=19   page=0    chnl=0 
char id=124     x=88   y=0    width=5    height=32   xoffset=7    yoffset=3    xadvance=19   page=0    chnl=0 
char id=125     x=73   y=0    width=15   height=32   xoffset=2    yoffset=3    xadvance=19   page=0    chnl=0 
char id=126     x=487  y=55   width=18   height=6    xoffset=1    yoffset=13   xadvance=19   page=0    chnl=0 
kernings count=0
